{
"gentleGreeting":[
  "asshole",
  "fucking",
  "motherfucking",
  "deepthroating",
  "donkeyfaced",
  "bitchy",
  "coksucking",
  "smelly",
  "lil",
  "ass",
  "pussy",
  "ugly",
  "handicapped",
  "dumb",
  "stupid",
  "cheating",
  "illiterate"

],

"lovelyNickname":[

  "hoe",
  "fuck",
  "anti-christ",
  "slut",
  "skank",
  "fatass",
  "dick",
  "hitler",
  "golddigger",
  "crackhead",
  "racist",
  "devil",
  "son of a bitch",
  "dog",
  "bastard",
  "retard",
  "diarrhea",
  "cheater",
  "pile of shit",
  "fool",
  "jerk",
  "poo",
  "prick",
  "turdsandwich",
  "nincompoop",
  "moron",
  "asshat",
  "dipshit",
  "prat",
  "thickhead",
  "ding-dong",
  "dunce",
  "nerd"

],

"compliments":[

"ugly",
"unlovely",
"nasty",
"horrible",
"rotten",
"disgusting",
"gross",
"stinky",
"smelly",
"empty hearted",
"soulless",
"heartless",
"cold",
"fat",
"insane",
"broke",
"dicksucking",
"drunk",
"handicapped",
"dumb",
"stupid",
"cheating",
"illiterate"
],

"bae":[
"asshole",
"fuckhead",
"motherfucker",
"deepthroater",
"donkey",
"bitch",
"coksucker",
"fuck",
"ass",
"pussy",
"hoe",
"fuck",
"anti-christ",
"slut",
"skank",
"fatass",
"dick",
"hitler",
"golddigger",
"crackhead",
"racist",
"devil",
"son of a bitch",
"dog",
"bastard",
"retard",
"diarrhea",
"cheater",
"pile of shit",
"fool",
"jerk",
"poo",
"prick",
"turdsandwich",
"nincompoop",
"moron"
],

"baby":[
"asshole.",
"fuckhead.",
"motherfucker.",
"deepthroater.",
"donkey.",
"bitch.",
"coksucker.",
"fuck.",
"ass.",
"pussy.",
"hoe.",
"fuck.",
"anti-christ.",
"slut.",
"skank.",
"fatass.",
"dick.",
"hitler.",
"golddigger.",
"crackhead.",
"racist.",
"devil.",
"son of a bitch.",
"dog.",
"bastard.",
"retard.",
"diarrhea.",
"cheater.",
"pile of shit.",
"fool.",
"jerk.",
"poo.",
"prick.",
"turdsandwich.",
"nincompoop.",
"moron."
],

"stupidIdoit":[
  "adoration.",
  "affection.",
  "ambition.",
  "appetite.",
  "ardour.",
  "being.",
  "burning.",
  "charm.",
  "craving.",
  "desire.",
  "devotion.",
  "eagerness.",
  "enchantment.",
  "enthusiasm.",
  "fancy.",
  "fellow feeling.",
  "fondness.",
  "heart.",
  "hunger.",
  "infatuation.",
  "little liking.",
  "longing.",
  "love.",
  "lust.",
  "passion.",
  "rapture.",
  "sympathy.",
  "thirst.",
  "wish.",
  "yearning."
],

"whyAreYouTheWayYouAre":[
  "affectionate",
  "amourous",
  "anxious",
  "avid",
  "beautiful",
  "breathless",
  "burning",
  "covetous",
  "craving",
  "curious",
  "eager",
  "fervent",
  "fondest",
  "loveable",
  "lovesick",
  "loving",
  "passionate",
  "precious",
  "seductive",
  "sweet",
  "sympathetic",
  "tender",
  "unsatisfied",
  "winning",
  "wistful"

],

"doNotLeaveMe":[

"hatefully",
"disgustingly",
"horribly",
"horrifyingly",
"disrespectfully",
"unlovingly",
"disgracefully",
"uncarringly",
"furiously",
"carelessly",
"not yours",
"murderously",
"killingly",
"ominously",
"threateningly"
],


"Longing4U":[
"hates",
"kills",
"disgusts",
"sickens",
"despises",
"detests",
"dislikes",
"fucks",
"sucks"
]
}
